[
  {
    "model": "main.Currency",
    "pk": 1,
    "fields": {
      "symbol": "₽",
      "code": "RUB",
      "name": "Рубль"
    }
  },
  {
    "model": "main.Currency",
    "pk": 2,
    "fields": {
      "symbol": "€",
      "code": "EUR",
      "name": "Евро"
    }
  },
  {
    "model": "main.Currency",
    "pk": 3,
    "fields": {
      "symbol": "$",
      "code": "USD",
      "name": "Доллар"
    }
  }
]